{
    "data": [
        {
            "category": "anime",
            "colors": [
                "#999999",
                "#cccccc",
                "#424153",
                "#fdadc7",
                "#ffffff"
            ],
            "created_at": "2026-04-27 04:17:57",
            "dimension_x": 7000,
            "dimension_y": 3937,
            "favorites": 178,
            "file_size": 15520706,
            "file_type": "image/jpeg",
            "id": "d8e1qm",
            "path": "https://w.wallhaven.cc/full/d8/wallhaven-d8e1qm.jpg",
            "purity": "sketchy",
            "ratio": "1.78",
            "resolution": "7000x3937",
            "short_url": "https://whvn.cc/d8e1qm",
            "source": "",
            "thumbs": {
                "large": "https://th.wallhaven.cc/lg/d8/d8e1qm.jpg",
                "original": "https://th.wallhaven.cc/orig/d8/d8e1qm.jpg",
                "small": "https://th.wallhaven.cc/small/d8/d8e1qm.jpg"
            },
            "url": "https://wallhaven.cc/w/d8e1qm",
            "views": 5991
        },
        {
            "category": "anime",
            "colors": [
                "#999999",
                "#424153",
                "#cccccc",
                "#abbcda",
                "#996633"
            ],
            "created_at": "2026-04-25 09:30:37",
            "dimension_x": 4400,
            "dimension_y": 2400,
            "favorites": 248,
            "file_size": 7853351,
            "file_type": "image/jpeg",
            "id": "jekgjm",
            "path": "https://w.wallhaven.cc/full/je/wallhaven-jekgjm.jpg",
            "purity": "sketchy",
            "ratio": "1.83",
            "resolution": "4400x2400",
            "short_url": "https://whvn.cc/jekgjm",
            "source": "https://www.pixiv.net/artworks/143953074",
            "thumbs": {
                "large": "https://th.wallhaven.cc/lg/je/jekgjm.jpg",
                "original": "https://th.wallhaven.cc/orig/je/jekgjm.jpg",
                "small": "https://th.wallhaven.cc/small/je/jekgjm.jpg"
            },
            "url": "https://wallhaven.cc/w/jekgjm",
            "views": 3414
        },
        {
            "category": "anime",
            "colors": [
                "#424153",
                "#999999",
                "#996633",
                "#e7d8b1",
                "#cccccc"
            ],
            "created_at": "2026-04-17 15:31:11",
            "dimension_x": 3840,
            "dimension_y": 2160,
            "favorites": 124,
            "file_size": 1257237,
            "file_type": "image/jpeg",
            "id": "8gdw72",
            "path": "https://w.wallhaven.cc/full/8g/wallhaven-8gdw72.jpg",
            "purity": "sketchy",
            "ratio": "1.78",
            "resolution": "3840x2160",
            "short_url": "https://whvn.cc/8gdw72",
            "source": "",
            "thumbs": {
                "large": "https://th.wallhaven.cc/lg/8g/8gdw72.jpg",
                "original": "https://th.wallhaven.cc/orig/8g/8gdw72.jpg",
                "small": "https://th.wallhaven.cc/small/8g/8gdw72.jpg"
            },
            "url": "https://wallhaven.cc/w/8gdw72",
            "views": 3092
        },
        {
            "category": "anime",
            "colors": [
                "#424153",
                "#000000",
                "#996633",
                "#999999",
                "#abbcda"
            ],
            "created_at": "2026-04-29 10:54:13",
            "dimension_x": 4093,
            "dimension_y": 2894,
            "favorites": 167,
            "file_size": 8255450,
            "file_type": "image/jpeg",
            "id": "zpo1xj",
            "path": "https://w.wallhaven.cc/full/zp/wallhaven-zpo1xj.jpg",
            "purity": "sketchy",
            "ratio": "1.41",
            "resolution": "4093x2894",
            "short_url": "https://whvn.cc/zpo1xj",
            "source": "https://www.pixiv.net/artworks/144114709",
            "thumbs": {
                "large": "https://th.wallhaven.cc/lg/zp/zpo1xj.jpg",
                "original": "https://th.wallhaven.cc/orig/zp/zpo1xj.jpg",
                "small": "https://th.wallhaven.cc/small/zp/zpo1xj.jpg"
            },
            "url": "https://wallhaven.cc/w/zpo1xj",
            "views": 2396
        },
        {
            "category": "anime",
            "colors": [
                "#e7d8b1",
                "#ffffff",
                "#999999",
                "#424153",
                "#cccccc"
            ],
            "created_at": "2026-04-18 08:28:34",
            "dimension_x": 4650,
            "dimension_y": 2600,
            "favorites": 106,
            "file_size": 10549525,
            "file_type": "image/png",
            "id": "k8kg11",
            "path": "https://w.wallhaven.cc/full/k8/wallhaven-k8kg11.png",
            "purity": "sketchy",
            "ratio": "1.79",
            "resolution": "4650x2600",
            "short_url": "https://whvn.cc/k8kg11",
            "source": "https://www.pixiv.net/artworks/143552164",
            "thumbs": {
                "large": "https://th.wallhaven.cc/lg/k8/k8kg11.jpg",
                "original": "https://th.wallhaven.cc/orig/k8/k8kg11.jpg",
                "small": "https://th.wallhaven.cc/small/k8/k8kg11.jpg"
            },
            "url": "https://wallhaven.cc/w/k8kg11",
            "views": 2039
        },
        {
            "category": "anime",
            "colors": [
                "#ffffff",
                "#cccccc",
                "#999999",
                "#424153",
                "#e7d8b1"
            ],
            "created_at": "2026-05-04 21:37:13",
            "dimension_x": 4134,
            "dimension_y": 5512,
            "favorites": 104,
            "file_size": 5062991,
            "file_type": "image/jpeg",
            "id": "k8297q",
            "path": "https://w.wallhaven.cc/full/k8/wallhaven-k8297q.jpg",
            "purity": "sketchy",
            "ratio": "0.75",
            "resolution": "4134x5512",
            "short_url": "https://whvn.cc/k8297q",
            "source": "https://www.pixiv.net/artworks/144253200",
            "thumbs": {
                "large": "https://th.wallhaven.cc/lg/k8/k8297q.jpg",
                "original": "https://th.wallhaven.cc/orig/k8/k8297q.jpg",
                "small": "https://th.wallhaven.cc/small/k8/k8297q.jpg"
            },
            "url": "https://wallhaven.cc/w/k8297q",
            "views": 1990
        },
        {
            "category": "anime",
            "colors": [
                "#424153",
                "#999999",
                "#cccccc",
                "#ffffff",
                "#663399"
            ],
            "created_at": "2026-05-02 21:01:10",
            "dimension_x": 3840,
            "dimension_y": 2160,
            "favorites": 111,
            "file_size": 874748,
            "file_type": "image/jpeg",
            "id": "qrl9xl",
            "path": "https://w.wallhaven.cc/full/qr/wallhaven-qrl9xl.jpg",
            "purity": "sketchy",
            "ratio": "1.78",
            "resolution": "3840x2160",
            "short_url": "https://whvn.cc/qrl9xl",
            "source": "",
            "thumbs": {
                "large": "https://th.wallhaven.cc/lg/qr/qrl9xl.jpg",
                "original": "https://th.wallhaven.cc/orig/qr/qrl9xl.jpg",
                "small": "https://th.wallhaven.cc/small/qr/qrl9xl.jpg"
            },
            "url": "https://wallhaven.cc/w/qrl9xl",
            "views": 1967
        },
        {
            "category": "anime",
            "colors": [
                "#999999",
                "#996633",
                "#e7d8b1",
                "#424153",
                "#cccccc"
            ],
            "created_at": "2026-04-21 11:01:11",
            "dimension_x": 4096,
            "dimension_y": 2304,
            "favorites": 94,
            "file_size": 1033817,
            "file_type": "image/jpeg",
            "id": "219v19",
            "path": "https://w.wallhaven.cc/full/21/wallhaven-219v19.jpg",
            "purity": "sketchy",
            "ratio": "1.78",
            "resolution": "4096x2304",
            "short_url": "https://whvn.cc/219v19",
            "source": "https://x.com/NIKKE_japan/status/2046152408536121647",
            "thumbs": {
                "large": "https://th.wallhaven.cc/lg/21/219v19.jpg",
                "original": "https://th.wallhaven.cc/orig/21/219v19.jpg",
                "small": "https://th.wallhaven.cc/small/21/219v19.jpg"
            },
            "url": "https://wallhaven.cc/w/219v19",
            "views": 1965
        },
        {
            "category": "anime",
            "colors": [
                "#abbcda",
                "#999999",
                "#66cccc",
                "#cccccc",
                "#ffffff"
            ],
            "created_at": "2026-04-22 06:20:01",
            "dimension_x": 5144,
            "dimension_y": 2952,
            "favorites": 140,
            "file_size": 12425616,
            "file_type": "image/png",
            "id": "1qxvlg",
            "path": "https://w.wallhaven.cc/full/1q/wallhaven-1qxvlg.png",
            "purity": "sketchy",
            "ratio": "1.74",
            "resolution": "5144x2952",
            "short_url": "https://whvn.cc/1qxvlg",
            "source": "https://x.com/tippy_cafe/status/2046055644483190942/photo/2",
            "thumbs": {
                "large": "https://th.wallhaven.cc/lg/1q/1qxvlg.jpg",
                "original": "https://th.wallhaven.cc/orig/1q/1qxvlg.jpg",
                "small": "https://th.wallhaven.cc/small/1q/1qxvlg.jpg"
            },
            "url": "https://wallhaven.cc/w/1qxvlg",
            "views": 1948
        },
        {
            "category": "anime",
            "colors": [
                "#999999",
                "#424153",
                "#ffffff",
                "#abbcda",
                "#663399"
            ],
            "created_at": "2026-04-27 21:27:51",
            "dimension_x": 4600,
            "dimension_y": 3000,
            "favorites": 134,
            "file_size": 9607568,
            "file_type": "image/png",
            "id": "vpy6mp",
            "path": "https://w.wallhaven.cc/full/vp/wallhaven-vpy6mp.png",
            "purity": "sketchy",
            "ratio": "1.53",
            "resolution": "4600x3000",
            "short_url": "https://whvn.cc/vpy6mp",
            "source": "https://www.pixiv.net/artworks/143891123",
            "thumbs": {
                "large": "https://th.wallhaven.cc/lg/vp/vpy6mp.jpg",
                "original": "https://th.wallhaven.cc/orig/vp/vpy6mp.jpg",
                "small": "https://th.wallhaven.cc/small/vp/vpy6mp.jpg"
            },
            "url": "https://wallhaven.cc/w/vpy6mp",
            "views": 1855
        },
        {
            "category": "anime",
            "colors": [
                "#999999",
                "#424153",
                "#ffffff",
                "#e7d8b1",
                "#abbcda"
            ],
            "created_at": "2026-04-24 12:50:57",
            "dimension_x": 4640,
            "dimension_y": 6942,
            "favorites": 103,
            "file_size": 13065780,
            "file_type": "image/jpeg",
            "id": "8gdqxy",
            "path": "https://w.wallhaven.cc/full/8g/wallhaven-8gdqxy.jpg",
            "purity": "sketchy",
            "ratio": "0.67",
            "resolution": "4640x6942",
            "short_url": "https://whvn.cc/8gdqxy",
            "source": "https://www.pixiv.net/artworks/143925978",
            "thumbs": {
                "large": "https://th.wallhaven.cc/lg/8g/8gdqxy.jpg",
                "original": "https://th.wallhaven.cc/orig/8g/8gdqxy.jpg",
                "small": "https://th.wallhaven.cc/small/8g/8gdqxy.jpg"
            },
            "url": "https://wallhaven.cc/w/8gdqxy",
            "views": 1713
        },
        {
            "category": "anime",
            "colors": [
                "#000000",
                "#424153",
                "#999999",
                "#996633",
                "#660000"
            ],
            "created_at": "2026-04-23 04:07:16",
            "dimension_x": 8264,
            "dimension_y": 5778,
            "favorites": 79,
            "file_size": 12769952,
            "file_type": "image/jpeg",
            "id": "w5lg2p",
            "path": "https://w.wallhaven.cc/full/w5/wallhaven-w5lg2p.jpg",
            "purity": "sketchy",
            "ratio": "1.43",
            "resolution": "8264x5778",
            "short_url": "https://whvn.cc/w5lg2p",
            "source": "https://www.pixiv.net/en/artworks/87820311",
            "thumbs": {
                "large": "https://th.wallhaven.cc/lg/w5/w5lg2p.jpg",
                "original": "https://th.wallhaven.cc/orig/w5/w5lg2p.jpg",
                "small": "https://th.wallhaven.cc/small/w5/w5lg2p.jpg"
            },
            "url": "https://wallhaven.cc/w/w5lg2p",
            "views": 1641
        },
        {
            "category": "anime",
            "colors": [
                "#999999",
                "#cccccc",
                "#424153",
                "#000000",
                "#cc3333"
            ],
            "created_at": "2026-04-23 08:46:17",
            "dimension_x": 3891,
            "dimension_y": 5513,
            "favorites": 115,
            "file_size": 10118926,
            "file_type": "image/png",
            "id": "pojzpj",
            "path": "https://w.wallhaven.cc/full/po/wallhaven-pojzpj.png",
            "purity": "sketchy",
            "ratio": "0.71",
            "resolution": "3891x5513",
            "short_url": "https://whvn.cc/pojzpj",
            "source": "https://www.pixiv.net/artworks/143632842",
            "thumbs": {
                "large": "https://th.wallhaven.cc/lg/po/pojzpj.jpg",
                "original": "https://th.wallhaven.cc/orig/po/pojzpj.jpg",
                "small": "https://th.wallhaven.cc/small/po/pojzpj.jpg"
            },
            "url": "https://wallhaven.cc/w/pojzpj",
            "views": 1632
        },
        {
            "category": "anime",
            "colors": [
                "#ffffff",
                "#fdadc7",
                "#424153",
                "#999999",
                "#e7d8b1"
            ],
            "created_at": "2026-05-05 19:16:29",
            "dimension_x": 5055,
            "dimension_y": 7150,
            "favorites": 96,
            "file_size": 10130121,
            "file_type": "image/png",
            "id": "1qr3l3",
            "path": "https://w.wallhaven.cc/full/1q/wallhaven-1qr3l3.png",
            "purity": "sketchy",
            "ratio": "0.71",
            "resolution": "5055x7150",
            "short_url": "https://whvn.cc/1qr3l3",
            "source": "https://www.pixiv.net/artworks/144394449",
            "thumbs": {
                "large": "https://th.wallhaven.cc/lg/1q/1qr3l3.jpg",
                "original": "https://th.wallhaven.cc/orig/1q/1qr3l3.jpg",
                "small": "https://th.wallhaven.cc/small/1q/1qr3l3.jpg"
            },
            "url": "https://wallhaven.cc/w/1qr3l3",
            "views": 1564
        },
        {
            "category": "anime",
            "colors": [
                "#000000",
                "#424153",
                "#663399",
                "#993399",
                "#999999"
            ],
            "created_at": "2026-05-06 04:28:57",
            "dimension_x": 3840,
            "dimension_y": 2160,
            "favorites": 76,
            "file_size": 899027,
            "file_type": "image/jpeg",
            "id": "og2xep",
            "path": "https://w.wallhaven.cc/full/og/wallhaven-og2xep.jpg",
            "purity": "sketchy",
            "ratio": "1.78",
            "resolution": "3840x2160",
            "short_url": "https://whvn.cc/og2xep",
            "source": "",
            "thumbs": {
                "large": "https://th.wallhaven.cc/lg/og/og2xep.jpg",
                "original": "https://th.wallhaven.cc/orig/og/og2xep.jpg",
                "small": "https://th.wallhaven.cc/small/og/og2xep.jpg"
            },
            "url": "https://wallhaven.cc/w/og2xep",
            "views": 1540
        },
        {
            "category": "anime",
            "colors": [
                "#ffffff",
                "#cccccc",
                "#999999",
                "#424153",
                "#e7d8b1"
            ],
            "created_at": "2026-05-03 09:41:18",
            "dimension_x": 4320,
            "dimension_y": 7680,
            "favorites": 114,
            "file_size": 13704471,
            "file_type": "image/jpeg",
            "id": "yqvjj7",
            "path": "https://w.wallhaven.cc/full/yq/wallhaven-yqvjj7.jpg",
            "purity": "sketchy",
            "ratio": "0.56",
            "resolution": "4320x7680",
            "short_url": "https://whvn.cc/yqvjj7",
            "source": "https://www.pixiv.net/artworks/144221548",
            "thumbs": {
                "large": "https://th.wallhaven.cc/lg/yq/yqvjj7.jpg",
                "original": "https://th.wallhaven.cc/orig/yq/yqvjj7.jpg",
                "small": "https://th.wallhaven.cc/small/yq/yqvjj7.jpg"
            },
            "url": "https://wallhaven.cc/w/yqvjj7",
            "views": 1518
        },
        {
            "category": "anime",
            "colors": [
                "#999999",
                "#cccccc",
                "#424153",
                "#e7d8b1",
                "#ffffff"
            ],
            "created_at": "2026-05-06 10:07:22",
            "dimension_x": 5302,
            "dimension_y": 8000,
            "favorites": 79,
            "file_size": 5976445,
            "file_type": "image/jpeg",
            "id": "7jr37y",
            "path": "https://w.wallhaven.cc/full/7j/wallhaven-7jr37y.jpg",
            "purity": "sketchy",
            "ratio": "0.66",
            "resolution": "5302x8000",
            "short_url": "https://whvn.cc/7jr37y",
            "source": "https://www.fanbox.cc/@nlch/posts/11813366",
            "thumbs": {
                "large": "https://th.wallhaven.cc/lg/7j/7jr37y.jpg",
                "original": "https://th.wallhaven.cc/orig/7j/7jr37y.jpg",
                "small": "https://th.wallhaven.cc/small/7j/7jr37y.jpg"
            },
            "url": "https://wallhaven.cc/w/7jr37y",
            "views": 1509
        },
        {
            "category": "anime",
            "colors": [
                "#424153",
                "#000000",
                "#999999",
                "#66cccc",
                "#cccccc"
            ],
            "created_at": "2026-05-08 10:27:25",
            "dimension_x": 4096,
            "dimension_y": 2748,
            "favorites": 93,
            "file_size": 9258127,
            "file_type": "image/png",
            "id": "rqjd8w",
            "path": "https://w.wallhaven.cc/full/rq/wallhaven-rqjd8w.png",
            "purity": "sketchy",
            "ratio": "1.49",
            "resolution": "4096x2748",
            "short_url": "https://whvn.cc/rqjd8w",
            "source": "https://www.pixiv.net/en/artworks/144325409",
            "thumbs": {
                "large": "https://th.wallhaven.cc/lg/rq/rqjd8w.jpg",
                "original": "https://th.wallhaven.cc/orig/rq/rqjd8w.jpg",
                "small": "https://th.wallhaven.cc/small/rq/rqjd8w.jpg"
            },
            "url": "https://wallhaven.cc/w/rqjd8w",
            "views": 1493
        },
        {
            "category": "anime",
            "colors": [
                "#424153",
                "#cccccc",
                "#999999",
                "#996633",
                "#000000"
            ],
            "created_at": "2026-05-11 15:02:37",
            "dimension_x": 8660,
            "dimension_y": 5000,
            "favorites": 91,
            "file_size": 11966391,
            "file_type": "image/jpeg",
            "id": "ly2yll",
            "path": "https://w.wallhaven.cc/full/ly/wallhaven-ly2yll.jpg",
            "purity": "sketchy",
            "ratio": "1.73",
            "resolution": "8660x5000",
            "short_url": "https://whvn.cc/ly2yll",
            "source": "https://www.pixiv.net/artworks/110138228",
            "thumbs": {
                "large": "https://th.wallhaven.cc/lg/ly/ly2yll.jpg",
                "original": "https://th.wallhaven.cc/orig/ly/ly2yll.jpg",
                "small": "https://th.wallhaven.cc/small/ly/ly2yll.jpg"
            },
            "url": "https://wallhaven.cc/w/ly2yll",
            "views": 1452
        },
        {
            "category": "anime",
            "colors": [
                "#abbcda",
                "#cccccc",
                "#ffffff",
                "#999999",
                "#424153"
            ],
            "created_at": "2026-04-23 14:42:10",
            "dimension_x": 4603,
            "dimension_y": 8190,
            "favorites": 82,
            "file_size": 19121195,
            "file_type": "image/jpeg",
            "id": "jekzkp",
            "path": "https://w.wallhaven.cc/full/je/wallhaven-jekzkp.jpg",
            "purity": "sketchy",
            "ratio": "0.56",
            "resolution": "4603x8190",
            "short_url": "https://whvn.cc/jekzkp",
            "source": "https://www.bilibili.com/opus/1194099391911166022",
            "thumbs": {
                "large": "https://th.wallhaven.cc/lg/je/jekzkp.jpg",
                "original": "https://th.wallhaven.cc/orig/je/jekzkp.jpg",
                "small": "https://th.wallhaven.cc/small/je/jekzkp.jpg"
            },
            "url": "https://wallhaven.cc/w/jekzkp",
            "views": 1436
        },
        {
            "category": "anime",
            "colors": [
                "#ffffff",
                "#999999",
                "#cccccc",
                "#e7d8b1",
                "#424153"
            ],
            "created_at": "2026-04-26 11:58:04",
            "dimension_x": 4299,
            "dimension_y": 4981,
            "favorites": 70,
            "file_size": 10250236,
            "file_type": "image/png",
            "id": "219739",
            "path": "https://w.wallhaven.cc/full/21/wallhaven-219739.png",
            "purity": "sketchy",
            "ratio": "0.86",
            "resolution": "4299x4981",
            "short_url": "https://whvn.cc/219739",
            "source": "https://www.bilibili.com/opus/1072707183603351554",
            "thumbs": {
                "large": "https://th.wallhaven.cc/lg/21/219739.jpg",
                "original": "https://th.wallhaven.cc/orig/21/219739.jpg",
                "small": "https://th.wallhaven.cc/small/21/219739.jpg"
            },
            "url": "https://wallhaven.cc/w/219739",
            "views": 1443
        },
        {
            "category": "anime",
            "colors": [
                "#996633",
                "#999999",
                "#424153",
                "#e7d8b1",
                "#ffffff"
            ],
            "created_at": "2026-05-05 11:39:57",
            "dimension_x": 3840,
            "dimension_y": 2160,
            "favorites": 82,
            "file_size": 889091,
            "file_type": "image/jpeg",
            "id": "poy8wp",
            "path": "https://w.wallhaven.cc/full/po/wallhaven-poy8wp.jpg",
            "purity": "sketchy",
            "ratio": "1.78",
            "resolution": "3840x2160",
            "short_url": "https://whvn.cc/poy8wp",
            "source": "https://x.com/Echocalypse_JP/status/2039598713212141614?s=20",
            "thumbs": {
                "large": "https://th.wallhaven.cc/lg/po/poy8wp.jpg",
                "original": "https://th.wallhaven.cc/orig/po/poy8wp.jpg",
                "small": "https://th.wallhaven.cc/small/po/poy8wp.jpg"
            },
            "url": "https://wallhaven.cc/w/poy8wp",
            "views": 1420
        },
        {
            "category": "anime",
            "colors": [
                "#424153",
                "#000000",
                "#996633",
                "#999999",
                "#e7d8b1"
            ],
            "created_at": "2026-04-22 21:48:22",
            "dimension_x": 8012,
            "dimension_y": 3435,
            "favorites": 48,
            "file_size": 20321763,
            "file_type": "image/jpeg",
            "id": "d8ej1l",
            "path": "https://w.wallhaven.cc/full/d8/wallhaven-d8ej1l.jpg",
            "purity": "sketchy",
            "ratio": "2.33",
            "resolution": "8012x3435",
            "short_url": "https://whvn.cc/d8ej1l",
            "source": "https://www.pixiv.net/en/artworks/128385861#1",
            "thumbs": {
                "large": "https://th.wallhaven.cc/lg/d8/d8ej1l.jpg",
                "original": "https://th.wallhaven.cc/orig/d8/d8ej1l.jpg",
                "small": "https://th.wallhaven.cc/small/d8/d8ej1l.jpg"
            },
            "url": "https://wallhaven.cc/w/d8ej1l",
            "views": 1419
        },
        {
            "category": "anime",
            "colors": [
                "#424153",
                "#999999",
                "#e7d8b1",
                "#ffffff",
                "#996633"
            ],
            "created_at": "2026-04-19 09:46:59",
            "dimension_x": 4029,
            "dimension_y": 5673,
            "favorites": 87,
            "file_size": 20286804,
            "file_type": "image/jpeg",
            "id": "gw9krd",
            "path": "https://w.wallhaven.cc/full/gw/wallhaven-gw9krd.jpg",
            "purity": "sketchy",
            "ratio": "0.71",
            "resolution": "4029x5673",
            "short_url": "https://whvn.cc/gw9krd",
            "source": "https://yuichihiiragi.fanbox.cc/posts/11760495",
            "thumbs": {
                "large": "https://th.wallhaven.cc/lg/gw/gw9krd.jpg",
                "original": "https://th.wallhaven.cc/orig/gw/gw9krd.jpg",
                "small": "https://th.wallhaven.cc/small/gw/gw9krd.jpg"
            },
            "url": "https://wallhaven.cc/w/gw9krd",
            "views": 1384
        }
    ],
    "meta": {
        "current_page": 1,
        "last_page": 4,
        "per_page": 24,
        "query": null,
        "seed": null,
        "total": 89
    }
}
